Caderno de aulas
…
Importação, Manipulação e Visualização de Dados com o R

Nesta aula, são apresentados diferentes métodos para importar, visualizar, manipular e representar graficamente dados a partir de diversas fontes, incluindo arquivos do Excel (com extensões .xlsx e .xls), arquivos no formato .csv e planilhas hospedadas no Google Sheets.

Arquivos Excel

Para importar uma planilha do Excel com múltiplas abas, utiliza-se a função read_excel() do pacote readxl. O arquivo deve estar na mesma pasta do seu projeto.

library(readxl)
library(tidyverse)
dados <-read_excel("dados-diversos.xlsx")
dados

# A tibble: 70 × 5
   Cultura   rep Assess LeafDoctor ImageJ
   <chr>   <dbl>  <dbl>      <dbl>  <dbl>
 1 Rosa       21  20.0        31.6  26.0 
 2 Rosa       22   4.77       13.5   5.16
 3 Rosa       23  72.1        77.6  69.5 
 4 Rosa       24  81.4        90.8  82.7 
 5 Rosa       25  25.8        24.5  13.1 
 6 Rosa       26  80.4        73.8  69.9 
 7 Rosa       27  81.7        86.8  88.7 
 8 Rosa       28   7.02       14.0   6.4 
 9 Rosa       29  11.2        16.0  10.8 
10 Rosa       30  79.1        77.0  78.2 
# ℹ 60 more rows
…
